Lecture12
…
Group By¶

The group_by function allows rows to be grouped based on their values in the given columns or columns

This makes finding averages and other summary data per group very easy
group_by(data,LIST_OF_COLUMNS)

In [31]:

print(starwars %>% group_by(species,homeworld) %>% 
      summarize(avg_height = mean(height)))

# A tibble: 58 x 3
# Groups:   species [?]
    species   homeworld avg_height
      <chr>       <chr>      <dbl>
 1   Aleena Aleen Minor         79
 2 Besalisk        Ojom        198
 3   Cerean       Cerea        198
 4 Chagrian    Champala        196
 5 Clawdite       Zolan        168
 6    Droid       Naboo         96
 7    Droid    Tatooine        132
 8    Droid        <NA>         NA
 9      Dug   Malastare        112
10     Ewok       Endor         88
# ... with 48 more rows

In [32]:

print(starwars %>% 
                  group_by(species,homeworld) %>% 
                      summarize(avg_height = mean(height),
                                min_height=min(height)))

# A tibble: 58 x 4
# Groups:   species [?]
    species   homeworld avg_height min_height
      <chr>       <chr>      <dbl>      <dbl>
 1   Aleena Aleen Minor         79         79
 2 Besalisk        Ojom        198        198
 3   Cerean       Cerea        198        198
 4 Chagrian    Champala        196        196
 5 Clawdite       Zolan        168        168
 6    Droid       Naboo         96         96
 7    Droid    Tatooine        132         97
 8    Droid        <NA>         NA         NA
 9      Dug   Malastare        112        112
10     Ewok       Endor         88         88
# ... with 48 more rows
…
